<?xml version="1.0" encoding="UTF-8" standalone="no"?>
<!-- Created with Inkscape (http://www.inkscape.org/) -->

<svg
   xmlns:dc="http://purl.org/dc/elements/1.1/"
   xmlns:cc="http://creativecommons.org/ns#"
   xmlns:rdf="http://www.w3.org/1999/02/22-rdf-syntax-ns#"
   xmlns:svg="http://www.w3.org/2000/svg"
   xmlns="http://www.w3.org/2000/svg"
   xmlns:sodipodi="http://sodipodi.sourceforge.net/DTD/sodipodi-0.dtd"
   xmlns:inkscape="http://www.inkscape.org/namespaces/inkscape"
   width="210mm"
   height="297mm"
   viewBox="0 0 744.09448819 1052.3622047"
   id="svg2"
   version="1.1"
   inkscape:version="0.91 r13725"
   sodipodi:docname="person.svg">
  <defs
     id="defs4" />
  <sodipodi:namedview
     id="base"
     pagecolor="#ffffff"
     bordercolor="#666666"
     borderopacity="1.0"
     inkscape:pageopacity="0.0"
     inkscape:pageshadow="2"
     inkscape:zoom="2.8"
     inkscape:cx="-201.35993"
     inkscape:cy="748.72037"
     inkscape:document-units="px"
     inkscape:current-layer="layer1"
     showgrid="false"
     inkscape:window-width="1375"
     inkscape:window-height="877"
     inkscape:window-x="57"
     inkscape:window-y="-8"
     inkscape:window-maximized="1" />
  <metadata
     id="metadata7">
    <rdf:RDF>
      <cc:Work
         rdf:about="">
        <dc:format>image/svg+xml</dc:format>
        <dc:type
           rdf:resource="http://purl.org/dc/dcmitype/StillImage" />
        <dc:title></dc:title>
      </cc:Work>
    </rdf:RDF>
  </metadata>
  <g
     inkscape:label="Capa 1"
     inkscape:groupmode="layer"
     id="layer1">
    <path
       style="fill:#005544;fill-opacity:1;fill-rule:evenodd;stroke:none;stroke-width:1px;stroke-linecap:butt;stroke-linejoin:miter;stroke-opacity:1"
       d="m -130.17858,277.18364 c 0,0 19.24028,-22.49152 1.80097,-28.51004 -0.33023,-0.11396 -0.78318,-0.23742 -1.22993,-0.22253 -0.31114,0.0104 -0.87181,0.0428 -1.13337,-0.0224 -14.08238,2.89413 -12.83374,15.47182 0.56233,28.75496 z"
       id="path4147"
       inkscape:connector-curvature="0"
       sodipodi:nodetypes="csscc"
       inkscape:export-xdpi="90"
       inkscape:export-ydpi="90" />
    <g
       id="g4157"
       transform="translate(0.53571404,1.9642855)"
       inkscape:export-xdpi="90"
       inkscape:export-ydpi="90">
      <ellipse
         style="opacity:0.98999999;fill:#008000;fill-opacity:1;stroke:none"
         id="ellipse4151"
         cx="-131.14003"
         cy="260.55093"
         rx="4.9780207"
         ry="5.325325" />
      <ellipse
         ry="4.5251312"
         rx="4.2300138"
         cy="254.0686"
         cx="-131.13042"
         id="path4149"
         style="opacity:0.98999999;fill:#e9c6af;fill-opacity:1;stroke:none" />
      <ellipse
         style="opacity:0.98999999;fill:#e9c6af;fill-opacity:1;stroke:none"
         id="ellipse4153"
         cx="-126.1428"
         cy="260.3909"
         rx="1.641498"
         ry="1.7560211" />
      <ellipse
         ry="1.7560211"
         rx="1.641498"
         cy="260.26462"
         cx="-135.99178"
         id="ellipse4155"
         style="opacity:0.98999999;fill:#e9c6af;fill-opacity:1;stroke:none" />
    </g>
  </g>
</svg>
